acc accm amloc cbo dit lcom4 loc noc rfc
com::android::calculator2::Calculator 0 2.375 10.1875 0 1 3 163 0 54
com::android::calculator2::Calculator::PageAdapter 0 1 5.88888888888889 0 1 9 53 0 9
com::android::calculator2::CalculatorDisplay 0 1 9.83333333333333 0 1 6 59 0 6
com::android::calculator2::CalculatorDisplay::Scroll 0 0 0 0 0 0 0 0 0
com::android::calculator2::CalculatorEditable 0 1 22 0 1 3 66 0 3
com::android::calculator2::CalculatorEditable::Factory 0 1 3 0 1 1 6 0 4
com::android::calculator2::CalculatorEditText 1 2.125 9.0625 0 1 6 145 0 41
com::android::calculator2::CalculatorEditText::MenuHandler 0 1 3 1 1 1 3 0 2
com::android::calculator2::CalculatorEditText::NoTextSelectionMode 0 1 3 0 1 4 12 0 4
com::android::calculator2::CalculatorViewPager 0 1 3 0 1 3 9 0 3
com::android::calculator2::ColorButton 0 1 4 0 1 5 20 0 5
com::android::calculator2::EventListener 0 1 32 0 1 3 96 0 3
com::android::calculator2::History 0 1 5 0 0 1 5 0 1
com::android::calculator2::HistoryAdapter 0 1 7.2 0 1 5 36 0 5
com::android::calculator2::HistoryEntry 0 1 3 0 0 1 3 0 1
com::android::calculator2::Logic 0 1 10.5 0 0 12 126 0 12
com::android::calculator2::Logic::Listener 1 1 1 0 0 1 1 1 1
com::android::calculator2::PanelSwitcher 0 1 7 0 1 10 70 0 10
com::android::calculator2::PanelSwitcher::Listener 1 1 1 0 0 1 1 1 1
com::android::calculator2::Persist 0 1 9 0 0 4 36 0 4
com::android::calculator2::CalculatorHitSomeButtons 0 1.125 9.625 0 1 4 77 0 14
com::android::calculator2::CalculatorInstrumentationTestRunner 0 1 4.5 0 1 2 9 0 2
com::android::calculator2::tests::CalculatorLaunchPerformance 0 1 4.66666666666667 0 1 3 14 0 3
