acc accm amloc cbo dit lcom4 loc noc rfc
com::android::camera::BitmapManager 2 2.2 10 2 0 2 50 0 14
com::android::camera::BitmapManager::State 2 0 0 0 0 0 0 0 0
com::android::camera::BitmapManager::ThreadStatus 1 3 12 1 0 1 12 0 5
com::android::camera::Camera 24 2.91111111111111 15.4111111111111 19 2 6 1387 0 530
com::android::camera::Camera::MainHandler 0 6 31 1 1 1 31 0 11
com::android::camera::Camera::ZoomGestureListener 0 3 20 2 1 1 20 0 12
com::android::camera::Camera::LocationListener 1 2.16666666666667 7.5 2 1 6 45 0 12
com::android::camera::Camera::ShutterCallback 0 1 6 1 1 1 6 0 6
com::android::camera::Camera::PostViewPictureCallback 0 1 7 1 1 1 7 0 4
com::android::camera::Camera::RawPictureCallback 0 1 6 1 1 1 6 0 4
com::android::camera::Camera::JpegPictureCallback 0 4 29 3 1 2 58 0 22
com::android::camera::Camera::AutoFocusCallback 0 7 33 2 1 1 33 0 15
com::android::camera::Camera::ErrorCallback 0 2 6 1 1 1 6 0 3
com::android::camera::Camera::ZoomListener 0 3 18 1 1 1 18 0 9
com::android::camera::Camera::ImageCapture 5 2.25 15 5 0 6 120 0 40
com::android::camera::Camera::MyOrientationEventListener 0 2.5 10.5 2 1 2 21 0 9
com::android::camera::Camera::MyHeadUpDisplayListener 0 1 2.66666666666667 1 1 3 8 0 5
com::android::camera::FocusRectangle 0 1 3 0 1 6 18 0 6
com::android::camera::JpegEncodingQualityMappings 0 1 8 0 0 1 8 0 1
com::android::camera::CameraButtonIntentReceiver 0 2 17 1 1 1 17 0 4
com::android::camera::CameraHardwareException 0 1 3 0 1 1 3 0 1
com::android::camera::CameraHolder 14 2 10.4444444444444 1 0 1 94 0 38
com::android::camera::CameraHolder::MyHandler 0 3 14 1 1 1 14 0 4
com::android::camera::CameraPreference 7 1.25 4.25 0 0 1 17 2 10
com::android::camera::CameraSettings 11 3.44444444444444 16.4444444444444 6 0 2 296 0 95
com::android::camera::ComboPreferences 18 1.5 5.27777777777778 1 1 4 95 0 47
com::android::camera::ComboPreferences::MyEditor 0 1.5 6.2 1 1 2 62 0 33
com::android::camera::gallery::BaseImage 6 1.375 5.25 1 1 1 42 2 22
com::android::camera::gallery::BaseImageList 10 2 9.27272727272727 1 1 1 102 2 37
com::android::camera::gallery::IImage 11 1 1 0 0 3 3 4 3
com::android::camera::gallery::IImageList 12 1 1 0 0 3 3 5 3
com::android::camera::gallery::Image 0 1 5.5 0 2 1 11 0 4
com::android::camera::gallery::ImageList 0 1.4 7.2 1 2 3 36 0 22
com::android::camera::gallery::ImageListUber 0 4 17.8 3 1 1 89 0 29
com::android::camera::gallery::ImageListUber::DescendingComparator 0 2 6 0 1 1 6 0 1
com::android::camera::gallery::ImageListUber::AscendingComparator 0 2 6 0 1 1 6 0 1
com::android::camera::gallery::ImageListUber::MergeSlot 2 1.5 5 2 0 2 10 0 5
com::android::camera::gallery::LruCache 4 1 6.8 0 0 5 34 0 5
com::android::camera::gallery::LruCache::Entry 0 1 4 0 1 1 4 0 1
com::android::camera::gallery::VideoList 0 1.2 5.8 1 2 3 29 0 18
com::android::camera::gallery::VideoObject 0 1.4 5.4 2 2 5 27 0 12
com::android::camera::IconIndicator 0 1.8 8.6 0 1 2 43 0 12
com::android::camera::IconListPreference 2 1.57142857142857 7.14285714285714 2 2 2 50 1 20
com::android::camera::ImageManager 9 2.8125 14.8125 3 0 8 237 0 44
com::android::camera::ImageManager::ImageListParam 2 1 4.8 0 1 3 24 0 21
com::android::camera::ImageManager::DataLocation 3 0 0 0 0 0 0 0 0
com::android::camera::ImageManager::EmptyImageList 0 1 2.66666666666667 0 1 3 8 0 3
com::android::camera::IntArray 1 1.66666666666667 6 0 0 1 18 0 8
com::android::camera::ListPreference 9 1.42857142857143 5.35714285714286 1 1 2 75 1 41
com::android::camera::MenuHelper 3 1.88888888888889 11.1111111111111 2 0 4 100 0 25
com::android::camera::NoSearchActivity 2 1 3 0 1 1 3 2 1
com::android::camera::OnScreenHint 4 2.28571428571429 12.1428571428571 0 0 3 85 0 18
com::android::camera::PreferenceGroup 6 1.85714285714286 5.14285714285714 1 1 1 36 0 15
com::android::camera::PreferenceInflater 1 3 14.75 0 0 1 59 0 12
com::android::camera::PreviewFrameLayout 3 2 10.6 1 1 2 53 0 13
com::android::camera::PreviewFrameLayout::OnSizeChangedListener 2 1 1 0 0 1 1 1 1
com::android::camera::RecordLocationPreference 1 1 4 1 3 1 12 0 11
com::android::camera::RotateImageView 0 2.66666666666667 21.3333333333333 0 1 2 64 0 17
com::android::camera::ShutterButton 3 1.57142857142857 8.71428571428571 1 1 4 61 0 14
com::android::camera::ShutterButton::OnShutterButtonListener 4 1 1 0 0 2 2 2 2
com::android::camera::Switcher 4 2.8 11.6 1 1 3 116 0 33
com::android::camera::Switcher::OnSwitchListener 3 1 1 0 0 1 1 2 1
com::android::camera::ThumbnailController 13 2.375 15.125 0 0 1 121 0 32
com::android::camera::ui::AbstractIndicator 4 1 6 0 1 8 48 3 8
com::android::camera::ui::BasicIndicator 1 1 7.85714285714286 0 2 7 55 1 7
com::android::camera::ui::BasicIndicator::MyListener 0 1.5 3.5 0 1 1 7 0 4
com::android::camera::ui::BasicTexture 6 1 3.45454545454545 0 1 11 38 2 11
com::android::camera::ui::BitmapTexture 4 1 12.2857142857143 0 2 7 86 2 7
com::android::camera::ui::CamcorderHeadUpDisplay 1 1.33333333333333 12.3333333333333 3 2 2 37 0 20
com::android::camera::ui::CameraEGLConfigChooser 0 1 16.6666666666667 0 1 3 50 0 3
com::android::camera::ui::CameraHeadUpDisplay 6 1.625 11.25 5 2 1 90 0 40
com::android::camera::ui::CanvasTexture 1 1 3.25 0 3 4 13 1 4
com::android::camera::ui::ColorTexture 0 1 2.66666666666667 0 1 3 8 0 3
com::android::camera::ui::GLListView 0 1 12.15 0 1 20 243 0 20
com::android::camera::ui::GLListView::Model 3 1 1 0 0 3 3 3 3
com::android::camera::ui::GLListView::OnItemSelectedListener 4 1 1 0 0 1 1 4 1
com::android::camera::ui::GLListView::MyGestureListener 0 2.25 7.25 0 1 4 29 0 4
com::android::camera::ui::GLOptionHeader 0 1 6.2 0 1 5 31 0 5
com::android::camera::ui::GLOptionItem 0 1 13.3333333333333 0 1 6 80 0 6
com::android::camera::ui::GLOutOfMemoryException 0 0 0 0 1 0 0 0 0
com::android::camera::ui::GLRootView 5 2.07692307692308 13.5128205128205 1 1 4 527 0 156
com::android::camera::ui::GLView 41 1.97368421052632 7.26315789473684 2 0 3 276 12 148
com::android::camera::ui::GLView::OnTouchListener 2 1 1 0 0 1 1 0 1
com::android::camera::ui::GpsIndicator 0 1 5.75 0 3 4 23 0 4
com::android::camera::ui::HeadUpDisplay 30 1.95652173913043 11.1739130434783 6 1 2 257 2 120
com::android::camera::ui::HeadUpDisplay::Listener 7 1 1 0 0 3 3 2 3
com::android::camera::ui::HeadUpDisplay::IndicatorBarListener 0 2 8.5 2 1 2 17 0 9
com::android::camera::ui::IndicatorBar 0 1 8.625 0 1 16 138 0 16
com::android::camera::ui::IndicatorBar::Background 0 2 11 1 1 1 11 0 4
com::android::camera::ui::IndicatorBar::OnItemSelectedListener 1 1 1 0 0 2 2 1 2
com::android::camera::ui::LinearLayout 0 1 13 0 1 2 26 0 2
com::android::camera::ui::MeasureHelper 0 1 5 0 0 5 25 0 5
com::android::camera::ui::NinePatchChunk 0 1 14.3333333333333 0 0 3 43 0 3
com::android::camera::ui::NinePatchTexture 0 1 6 0 4 5 30 0 5
com::android::camera::ui::OtherSettingsIndicator 0 1 9.85714285714286 0 2 7 69 0 7
com::android::camera::ui::OtherSettingsIndicator::UberAdapter 0 2.75 8.75 0 1 4 35 0 4
com::android::camera::ui::OtherSettingsIndicator::RestoreSettingsModel 0 1.2 4 0 1 5 20 0 5
com::android::camera::ui::PopupWindow 0 1 10.6875 0 1 16 171 0 16
com::android::camera::ui::PreferenceAdapter 0 1 8.55555555555556 0 1 9 77 0 9
com::android::camera::ui::RawTexture 0 1 5 0 2 5 25 0 5
com::android::camera::ui::ResourceTexture 1 1 6 0 3 3 18 1 3
com::android::camera::ui::RestoreSettingsItem 0 1 6.75 0 1 4 27 0 4
com::android::camera::ui::RotatePane 0 1 10.875 0 1 8 87 0 8
com::android::camera::ui::RotateRecordingTime 1 1.75 7.25 0 1 2 29 0 9
com::android::camera::ui::StringTexture 0 1 6.5 0 4 4 26 0 4
com::android::camera::ui::Texture 8 1 1 0 0 2 2 2 2
com::android::camera::ui::ZoomController 0 1 13.6428571428571 0 1 14 191 0 14
com::android::camera::ui::ZoomControllerListener 1 1 1 0 0 1 1 1 1
com::android::camera::ui::ZoomIndicator 0 1 7.6 0 2 10 76 0 10
com::android::camera::ui::ZoomIndicator::MyZoomListener 0 6 6 0 1 1 6 0 1
com::android::camera::Util 2 2.7 11.95 1 0 14 239 0 36
com::android::camera::VideoCamera 5 2.65 15.5 19 2 7 1240 0 454
com::android::camera::VideoCamera::MainHandler 0 4 23 1 1 1 23 0 7
com::android::camera::VideoCamera::MyBroadcastReceiver 0 6 18 1 1 1 18 0 4
com::android::camera::VideoCamera::MyOrientationEventListener 0 3 11 2 1 2 22 0 10
com::android::camera::VideoCamera::MyHeadUpDisplayListener 0 1 5.33333333333333 1 1 3 16 0 7
com::android::camera::CameraLaunchPerformance 0 1 5 0 1 2 10 0 2
com::android::camera::stress::CameraStressTestRunner 2 2 8 0 1 3 24 0 6
com::android::camera::functional::CameraTest 0 2.33333333333333 13.6666666666667 0 1 1 41 0 9
com::android::camera::unittest::CameraTest 0 1 15 0 1 1 15 0 1
com::android::camera::gallery::LruCacheUnitTests 0 2.25 10.75 1 1 4 43 0 11
com::android::camera::gallery::LruCacheUnitTests::Accessor 0 1 5 0 1 2 10 0 2
com::android::camera::gallery::MockImage 1 1 3.08333333333333 0 1 22 74 0 29
com::android::camera::gallery::MockImageList 0 1 2.8 1 1 9 42 0 23
com::android::camera::power::ImageAndVideoCapture 0 1.83333333333333 10.1666666666667 0 1 4 61 0 17
com::android::camera::stress::CameraLatency 0 2 19.75 1 1 4 79 0 23
com::android::camera::stress::CameraStartUp 0 2.6 21 0 1 1 105 0 22
com::android::camera::stress::ImageCapture 0 2.08333333333333 17 2 1 2 204 0 56
com::android::camera::stress::SwitchPreview 0 1.66666666666667 9.16666666666667 0 1 2 55 0 17
com::android::camera::StressTests 0 1 8 0 1 1 8 0 1
com::android::camera::UnitTests 0 1 7 0 1 1 7 0 1
