acc accm amloc cbo dit lcom4 loc noc rfc
com::android::mms::ContentRestrictionException 3 1 3 0 1 3 9 3 3
com::android::mms::data::Contact 28 1.29032258064516 5.7741935483871 2 0 5 179 0 84
com::android::mms::data::Contact::UpdateListener 2 1 1 0 0 1 1 2 1
com::android::mms::data::Contact::ContactsCache 2 5.58333333333333 29.4166666666667 3 0 12 353 0 68
com::android::mms::data::Contact::ContactsCache::TaskStack 1 3.5 16 0 0 2 32 0 2
com::android::mms::data::ContactList 14 2.58333333333333 10 2 1 11 120 0 20
com::android::mms::data::Conversation 33 2.4 12.2444444444444 3 0 5 551 0 160
com::android::mms::data::Conversation::Cache 0 17 3 3 0 1 3 0 11
com::android::mms::data::RecipientIdCache 1 4.4 25 2 0 1 125 0 34
com::android::mms::data::RecipientIdCache::Entry 3 1 4 1 0 1 4 0 7
com::android::mms::data::WorkingMessage 42 3.06666666666667 16.0833333333333 12 0 1 965 0 390
com::android::mms::data::WorkingMessage::MessageStatusListener 6 1 1 0 0 6 6 1 6
com::android::mms::dom::AttrImpl 0 1 3.14285714285714 0 2 9 44 0 21
com::android::mms::dom::DocumentImpl 2 1 3.20588235294118 0 2 32 109 1 36
com::android::mms::dom::ElementImpl 68 1.08 4.04 1 2 18 101 1 36
com::android::mms::dom::events::EventImpl 1 1 3.5 0 1 2 42 0 33
com::android::mms::dom::events::EventTargetImpl 0 4 19.75 3 1 1 79 0 15
com::android::mms::dom::events::EventTargetImpl::EventListenerEntry 0 0 0 0 0 0 0 0 0
com::android::mms::dom::NamedNodeMapImpl 0 1.625 6.125 0 1 4 49 0 15
com::android::mms::dom::NodeImpl 21 1.16666666666667 4.23809523809524 1 1 28 178 3 65
com::android::mms::dom::NodeListImpl 0 2.8 12.2 0 1 1 61 0 21
com::android::mms::dom::smil::ElementParallelTimeContainerImpl 0 4.4 20.2 4 3 2 101 0 34
com::android::mms::dom::smil::ElementSequentialTimeContainerImpl 0 3.5 13.5 2 3 1 27 0 6
com::android::mms::dom::smil::ElementTimeContainerImpl 2 0 0 0 2 0 0 2 0
com::android::mms::dom::smil::ElementTimeImpl 3 3.25 15.6875 3 1 11 251 1 54
com::android::mms::dom::smil::parser::SmilContentHandler 1 2.4 8.2 0 1 1 41 0 17
com::android::mms::dom::smil::parser::SmilXmlParser 1 1.33333333333333 12.6666666666667 2 0 1 38 0 12
com::android::mms::dom::smil::parser::SmilXmlSerializer 0 3.5 22 0 0 1 44 0 3
com::android::mms::dom::smil::SmilDocumentImpl 3 1.43333333333333 6.5 4 4 19 195 0 73
com::android::mms::dom::smil::SmilElementImpl 7 1 4 0 3 2 8 5 2
com::android::mms::dom::smil::SmilLayoutElementImpl 0 1.75 7 4 4 4 28 0 13
com::android::mms::dom::smil::SmilMediaElementImpl 6 1 3.01960784313725 2 4 51 154 1 102
com::android::mms::dom::smil::SmilParElementImpl 1 1 3 3 4 26 78 0 52
com::android::mms::dom::smil::SmilPlayer 9 2.70833333333333 12.25 8 1 2 588 0 284
com::android::mms::dom::smil::SmilPlayer::SmilPlayerState 9 0 0 0 0 0 0 0 0
com::android::mms::dom::smil::SmilPlayer::SmilPlayerAction 17 0 0 0 0 0 0 0 0
com::android::mms::dom::smil::SmilPlayer::TimelineEntry 7 1 3.4 0 0 1 17 0 14
com::android::mms::dom::smil::SmilRefElementImpl 0 0 0 0 6 0 0 0 0
com::android::mms::dom::smil::SmilRegionElementImpl 0 2.5 9.4 2 4 13 188 0 83
com::android::mms::dom::smil::SmilRegionMediaElementImpl 1 2.5 9 4 5 1 18 1 10
com::android::mms::dom::smil::SmilRootLayoutElementImpl 0 1.22222222222222 4.11111111111111 1 4 7 37 0 19
com::android::mms::dom::smil::TimeImpl 0 1.8 8.73333333333333 0 1 14 131 0 16
com::android::mms::dom::smil::TimeListImpl 0 1.5 6 0 1 1 12 0 4
com::android::mms::drm::DrmUtils 0 2.33333333333333 9.66666666666667 0 0 2 29 0 6
com::android::mms::drm::DrmWrapper 7 2.36363636363636 9.81818181818182 0 0 1 108 0 35
com::android::mms::ExceedMessageSizeException 0 1 3 0 2 2 6 0 2
com::android::mms::layout::HVGALayoutParameters 0 1.28571428571429 4.71428571428571 1 1 1 33 0 31
com::android::mms::layout::LayoutManager 1 1.7 6 1 0 2 60 0 38
com::android::mms::layout::LayoutParameters 19 1 1 0 0 6 6 1 6
com::android::mms::LogTag 97 1.8 7 0 0 1 35 0 12
com::android::mms::MmsApp 4 1.16666666666667 7.33333333333333 1 1 5 44 0 11
com::android::mms::MmsConfig 0 2.46428571428571 7.64285714285714 0 0 1 214 0 84
com::android::mms::model::AudioModel 1 2.44444444444444 12.1111111111111 7 2 3 109 0 44
com::android::mms::model::CarrierContentRestriction 0 2.5 8.66666666666667 0 1 6 52 0 9
com::android::mms::model::ContentRestriction 5 1 1 0 0 5 5 1 5
com::android::mms::model::ContentRestrictionFactory 0 1.5 4 0 0 2 8 0 3
com::android::mms::model::ImageModel 1 1.93333333333333 9.2 10 3 5 138 0 66
com::android::mms::model::IModelChangedObserver 4 1 1 0 0 1 1 2 1
com::android::mms::model::LayoutModel 15 2.40909090909091 8.90909090909091 3 1 1 196 0 106
com::android::mms::model::MediaModel 34 1.54545454545455 6.36363636363636 5 1 7 210 2 111
com::android::mms::model::MediaModel::MediaAction 6 0 0 0 0 0 0 0 0
com::android::mms::model::MediaModelFactory 0 10 46 8 0 1 184 0 29
com::android::mms::model::Model 54 1.28571428571429 4.28571428571429 0 0 1 30 5 14
com::android::mms::model::RegionMediaModel 7 1 4.125 1 2 3 33 3 16
com::android::mms::model::RegionModel 8 1 3.9375 1 1 3 63 0 43
com::android::mms::model::SlideModel 31 1.68421052631579 6.28070175438596 6 1 7 358 0 170
com::android::mms::model::SlideshowModel 54 2.29787234042553 10.6595744680851 12 1 5 501 0 168
com::android::mms::model::SmilHelper 15 3.61538461538462 23.9230769230769 14 0 2 311 0 63
com::android::mms::model::TextModel 8 2.11111111111111 9.11111111111111 7 3 3 82 0 31
com::android::mms::model::VideoModel 0 2.57142857142857 12.2857142857143 10 3 4 86 0 39
com::android::mms::ResolutionException 0 1 3 0 2 2 6 0 2
com::android::mms::SuggestionsProvider 0 1 4.57142857142857 0 1 7 32 0 7
com::android::mms::SuggestionsProvider::SuggestionsCursor 0 1.37931034482759 5 1 1 44 290 0 80
com::android::mms::SuggestionsProvider::SuggestionsCursor::Row 2 1 4.5 0 0 2 9 0 2
com::android::mms::transaction::AbstractRetryScheme 3 1 1.66666666666667 0 0 1 5 1 6
com::android::mms::transaction::DefaultRetryScheme 1 1.33333333333333 6 1 1 1 18 0 10
com::android::mms::transaction::HttpUtils 2 5.33333333333333 35.1666666666667 1 0 3 211 0 21
com::android::mms::transaction::MessageSender 5 1 1 0 0 1 1 2 1
com::android::mms::transaction::MessageStatusReceiver 1 2 13 1 1 1 52 0 14
com::android::mms::transaction::MessagingNotification 5 2.65384615384615 19.6923076923077 5 0 5 512 0 96
com::android::mms::transaction::MessagingNotification::OnDeletedReceiver 0 2 7 2 1 1 7 0 3
com::android::mms::transaction::MessagingNotification::MmsSmsDeliveryInfo 0 1 4 1 0 2 8 0 3
com::android::mms::transaction::MessagingNotification::MmsSmsNotificationInfo 2 1 6.66666666666667 1 0 3 20 0 4
com::android::mms::transaction::MessagingNotification::MmsSmsNotificationInfoComparator 0 1 4 1 1 1 4 0 2
com::android::mms::transaction::MmsMessageSender 0 1.75 21 1 1 2 84 0 22
com::android::mms::transaction::MmsSystemEventReceiver 0 4 14.75 1 1 1 59 0 16
com::android::mms::transaction::NotificationTransaction 0 3.66666666666667 25 6 2 3 150 0 37
com::android::mms::transaction::Observable 16 1.6 4.8 0 0 1 24 1 12
com::android::mms::transaction::Observer 2 1 1 0 0 1 1 2 1
com::android::mms::transaction::PrivilegedSmsReceiver 0 1 5 1 2 1 5 0 2
com::android::mms::transaction::ProgressCallbackEntity 0 3 15.3333333333333 0 1 1 46 0 15
com::android::mms::transaction::PushReceiver 1 4.33333333333333 25 1 1 3 75 0 6
com::android::mms::transaction::PushReceiver::ReceivePushTask 1 6.5 42.5 3 1 1 85 0 11
com::android::mms::transaction::ReadRecTransaction 0 2.66666666666667 17.3333333333333 3 2 2 52 0 17
com::android::mms::transaction::RetrieveTransaction 0 3 20.375 5 2 3 163 0 37
com::android::mms::transaction::RetryScheduler 0 5 27.7142857142857 7 1 1 194 0 41
com::android::mms::transaction::SendTransaction 0 3 26.25 5 2 3 105 0 22
com::android::mms::transaction::SimFullReceiver 0 2 26 1 1 1 26 0 2
com::android::mms::transaction::SmsMessageSender 3 2.4 14.6 3 1 2 73 1 28
com::android::mms::transaction::SmsReceiver 2 2 8.8 0 1 3 44 1 8
com::android::mms::transaction::SmsReceiverService 3 2.63157894736842 17.4210526315789 5 1 2 331 0 72
com::android::mms::transaction::SmsReceiverService::ServiceHandler 0 3.5 13.5 1 1 2 27 0 9
com::android::mms::transaction::SmsRejectedReceiver 1 4 46 0 1 1 46 0 2
com::android::mms::transaction::SmsSingleRecipientSender 0 4 27 4 2 1 81 0 19
com::android::mms::transaction::Transaction 28 1.375 6.375 3 1 2 102 4 53
com::android::mms::transaction::TransactionBundle 4 1 3.75 1 0 1 45 0 38
com::android::mms::transaction::TransactionService 4 4.375 21.125 6 1 2 338 0 100
com::android::mms::transaction::TransactionService::ServiceHandler 0 14.75 79.75 6 1 2 319 0 45
com::android::mms::transaction::TransactionSettings 6 2.57142857142857 10.4285714285714 0 0 1 73 0 25
com::android::mms::transaction::TransactionState 6 1.33333333333333 3.33333333333333 0 0 1 10 0 10
com::android::mms::ui::AdaptableSlideViewInterface 1 1 1 0 2 4 4 1 4
com::android::mms::ui::AdaptableSlideViewInterface::OnSizeChangedListener 1 1 1 0 0 1 1 0 1
com::android::mms::ui::AttachmentEditor 9 1.90909090909091 12 5 1 2 132 0 45
com::android::mms::ui::AttachmentEditor::MessageOnClick 2 1 3.5 1 1 1 7 0 5
com::android::mms::ui::AttachmentTypeSelectorAdapter 2 1.5 10.25 1 2 2 41 0 15
com::android::mms::ui::AttachmentTypeSelectorAdapter::AttachmentListItem 1 1 4 0 1 1 8 0 4
com::android::mms::ui::AudioAttachmentView 0 1.25 5.625 0 2 15 135 0 50
com::android::mms::ui::BasicSlideEditorView 1 1.18181818181818 4.95454545454545 1 2 16 109 0 40
com::android::mms::ui::BasicSlideEditorView::OnTextChangedListener 1 1 1 0 0 1 1 0 1
com::android::mms::ui::ClassZeroActivity 0 2.625 16.25 0 1 1 130 0 39
com::android::mms::ui::ComposeMessageActivity 11 3.36752136752137 19.9401709401709 18 1 6 2333 0 657
com::android::mms::ui::ComposeMessageActivity::DeleteMessageListener 4 1.33333333333333 5.33333333333333 1 1 1 16 0 11
com::android::mms::ui::ComposeMessageActivity::DiscardDraftListener 0 1 4 2 1 1 4 0 3
com::android::mms::ui::ComposeMessageActivity::SendIgnoreInvalidRecipientListener 0 1 3 1 1 1 3 0 2
com::android::mms::ui::ComposeMessageActivity::CancelSendingListener 0 2 5 1 1 1 5 0 3
com::android::mms::ui::ComposeMessageActivity::RecipientsMenuClickListener 0 3 20 2 1 1 20 0 8
com::android::mms::ui::ComposeMessageActivity::MsgListMenuClickListener 0 14 80 2 1 1 80 0 26
com::android::mms::ui::ComposeMessageActivity::PduBodyCache 4 3 13 1 0 1 13 0 2
com::android::mms::ui::ComposeMessageActivity::BackgroundQueryHandler 0 4.33333333333333 24.6666666666667 4 1 3 74 0 19
com::android::mms::ui::ConfirmRateLimitActivity 0 2 13 1 1 1 65 0 19
com::android::mms::ui::ConversationList 6 2.28571428571429 15.2380952380952 9 1 2 320 0 94
com::android::mms::ui::ConversationList::DeleteThreadListener 2 1.33333333333333 8 2 1 1 24 0 14
com::android::mms::ui::ConversationList::ThreadListQueryHandler 0 2.66666666666667 18.6666666666667 2 1 3 56 0 16
com::android::mms::ui::ConversationListAdapter 1 1.66666666666667 5.66666666666667 2 1 3 34 0 16
com::android::mms::ui::ConversationListAdapter::OnContentChangedListener 1 1 1 0 0 1 1 0 1
com::android::mms::ui::ConversationListItem 3 1.76923076923077 12.2307692307692 3 1 2 159 0 69
com::android::mms::ui::ConversationListItemData 4 1 3.85714285714286 2 0 1 54 0 51
com::android::mms::ui::DeliveryReportActivity 0 3.46666666666667 16.1333333333333 1 1 2 242 0 37
com::android::mms::ui::DeliveryReportActivity::MmsReportStatus 0 1 4 0 0 1 4 0 1
com::android::mms::ui::DeliveryReportActivity::MmsReportRequest 1 1 3.5 0 0 4 14 0 4
com::android::mms::ui::DeliveryReportAdapter 0 2 11.5 1 1 2 23 0 3
com::android::mms::ui::DeliveryReportItem 0 1 4 0 0 1 4 0 1
com::android::mms::ui::DeliveryReportListItem 1 2.66666666666667 13.3333333333333 1 1 2 40 0 10
com::android::mms::ui::EditSlideDurationActivity 1 2 19.25 0 1 1 77 0 27
com::android::mms::ui::IconListAdapter 2 1.5 13 0 1 1 26 2 6
com::android::mms::ui::IconListAdapter::IconListItem 1 1 3.33333333333333 0 0 1 10 1 7
com::android::mms::ui::ImageAttachmentView 0 1.04761904761905 3.9047619047619 0 2 19 82 0 24
com::android::mms::ui::LayoutSelectorAdapter 0 1 5.33333333333333 0 2 1 16 0 5
com::android::mms::ui::ManageSimMessages 2 1.89473684210526 10.5789473684211 0 1 1 201 0 76
com::android::mms::ui::ManageSimMessages::QueryHandler 0 2.5 16.5 1 1 1 33 0 11
com::android::mms::ui::MessageItem 6 1.25 5.83333333333333 1 0 7 70 0 20
com::android::mms::ui::MessageItem::DeliveryStatus 1 0 0 0 0 0 0 0 0
com::android::mms::ui::MessageListAdapter 7 2.63636363636364 11.9090909090909 3 1 1 131 0 51
com::android::mms::ui::MessageListAdapter::OnDataSetChangedListener 2 1 1 0 0 2 2 0 2
com::android::mms::ui::MessageListAdapter::ColumnsMap 2 9.5 62.5 0 0 2 125 0 2
com::android::mms::ui::MessageListAdapter::AvatarCache 0 1 8 0 0 2 16 0 2
com::android::mms::ui::MessageListAdapter::AvatarCache::ContactData 0 3.28571428571429 11.8571428571429 1 0 3 83 0 16
com::android::mms::ui::MessageListItem 3 2.37837837837838 14.1351351351351 9 2 18 523 0 129
com::android::mms::ui::MessageListView 0 2 8.33333333333333 2 1 3 25 0 5
com::android::mms::ui::MessageUtils 1 3.51351351351351 21.1891891891892 8 0 16 784 0 103
com::android::mms::ui::MessageUtils::ResizeImageResultCallback 0 1 1 0 0 1 1 0 1
com::android::mms::ui::MessagingPreferenceActivity 8 2.25 15 2 1 1 120 0 45
com::android::mms::ui::MmsThumbnailPresenter 0 1.875 6.125 7 2 3 49 0 40
com::android::mms::ui::NumberPicker 8 1.95238095238095 10.1904761904762 2 1 4 214 1 80
com::android::mms::ui::NumberPicker::OnChangedListener 1 1 1 0 0 1 1 0 1
com::android::mms::ui::NumberPicker::Formatter 1 1 1 0 0 1 1 0 1
com::android::mms::ui::NumberPicker::NumberPickerInputFilter 0 4 18 1 1 1 18 0 3
com::android::mms::ui::NumberPicker::NumberRangeKeyListener 0 2 11.3333333333333 1 1 3 34 0 6
com::android::mms::ui::NumberPickerButton 0 1 4.55555555555556 0 1 9 41 0 9
com::android::mms::ui::NumberPickerDialog 0 1.2 10.6 2 1 2 53 0 21
com::android::mms::ui::NumberPickerDialog::OnNumberSetListener 1 1 1 0 0 1 1 0 1
com::android::mms::ui::NumberPickerDialog::NonWrapNumberPicker 0 1.5 4.5 0 2 4 18 0 4
com::android::mms::ui::Presenter 11 1 3.4 1 1 1 17 2 13
com::android::mms::ui::PresenterFactory 0 3 26 0 0 1 26 0 3
com::android::mms::ui::RecipientsAdapter 0 3.6 33.2 0 1 1 166 0 22
com::android::mms::ui::RecipientsEditor 8 2.63157894736842 12.5789473684211 2 1 4 239 0 51
com::android::mms::ui::RecipientsEditor::RecipientsEditorTokenizer 8 4 22.25 1 1 4 89 0 9
com::android::mms::ui::RecipientsEditor::RecipientContextMenuInfo 0 0 0 0 1 0 0 0 0
com::android::mms::ui::SearchActivity 1 3 61 0 1 2 122 0 3
com::android::mms::ui::SearchActivity::TextViewSnippet 0 2.4 19.2 2 1 4 96 0 16
com::android::mms::ui::SlideEditorActivity 1 3.65 22.9 9 1 2 458 0 185
com::android::mms::ui::SlideListItemView 1 1.19047619047619 4.66666666666667 0 2 17 98 0 33
com::android::mms::ui::SlideshowActivity 0 5.875 28.875 7 1 1 231 0 53
com::android::mms::ui::SlideshowActivity::SmilPlayerController 0 1.18181818181818 3.45454545454545 1 1 6 38 0 22
com::android::mms::ui::SlideshowAttachmentView 0 1.19047619047619 4.14285714285714 0 2 15 87 0 31
com::android::mms::ui::SlideshowEditActivity 0 2.93333333333333 15.9333333333333 4 1 1 239 0 97
com::android::mms::ui::SlideshowEditActivity::SlideListAdapter 0 1 11.6666666666667 3 1 1 35 0 15
com::android::mms::ui::SlideshowEditor 10 1.31578947368421 5.10526315789474 5 0 1 97 0 95
com::android::mms::ui::SlideshowPresenter 1 3.11764705882353 12 8 2 3 204 0 71
com::android::mms::ui::SlideView 1 3.03333333333333 12.3 4 3 5 369 0 119
com::android::mms::ui::SlideView::Position 1 1 4 0 0 1 4 0 3
com::android::mms::ui::SlideViewInterface 14 1 1 0 1 16 16 8 16
com::android::mms::ui::UriImage 4 4 23.5 2 0 1 235 0 44
com::android::mms::ui::VideoAttachmentView 0 1.13636363636364 4.09090909090909 0 2 20 90 0 25
com::android::mms::ui::ViewInterface 14 1 1 0 0 4 4 1 4
com::android::mms::ui::WarnOfStorageLimitsActivity 0 1.57142857142857 7.57142857142857 0 1 4 53 0 15
com::android::mms::UnsupportContentTypeException 0 1 3 0 2 2 6 0 2
com::android::mms::util::AddressUtils 0 3 15.5 0 0 2 31 0 2
com::android::mms::util::DownloadManager 5 3.25 15 1 0 1 120 0 41
com::android::mms::util::DraftCache 5 2.90909090909091 12.0909090909091 1 0 1 133 0 43
com::android::mms::util::DraftCache::OnDraftChangedListener 1 1 1 0 0 1 1 1 1
com::android::mms::util::RateController 3 2.71428571428571 11.5714285714286 0 0 1 81 0 31
com::android::mms::util::Recycler 16 1.53333333333333 4.4 1 0 2 66 2 41
com::android::mms::util::Recycler::SmsRecycler 0 2.57142857142857 14.1428571428571 1 1 1 99 0 25
com::android::mms::util::Recycler::MmsRecycler 2 3.22222222222222 16.7777777777778 1 1 2 151 0 35
com::android::mms::util::SendingProgressTokenManager 4 2 6.33333333333333 0 0 1 19 0 13
com::android::mms::util::SmileyParser 3 1.66666666666667 9.16666666666667 0 0 1 55 0 22
com::android::mms::util::SmileyParser::Smileys 0 1 3 0 0 1 3 0 1
org::w3c::dom::events::DocumentEvent 1 1 1 0 0 1 1 1 1
org::w3c::dom::events::Event 10 1 1 0 0 10 10 2 10
org::w3c::dom::events::EventException 1 1 4 0 1 1 4 0 2
org::w3c::dom::events::EventListener 8 1 1 0 0 1 1 3 1
org::w3c::dom::events::EventTarget 18 1 1 0 0 3 3 2 3
org::w3c::dom::smil::ElementExclusiveTimeContainer 0 1 1 0 2 3 3 0 3
org::w3c::dom::smil::ElementLayout 8 1 1 0 0 8 8 3 8
org::w3c::dom::smil::ElementParallelTimeContainer 6 1 1 0 2 3 3 2 3
org::w3c::dom::smil::ElementSequentialTimeContainer 3 0 0 0 2 0 0 2 0
org::w3c::dom::smil::ElementSyncBehavior 0 1 1 0 0 5 5 0 5
org::w3c::dom::smil::ElementTargetAttributes 5 1 1 0 0 4 4 2 4
org::w3c::dom::smil::ElementTest 0 1 1 0 0 13 13 0 13
org::w3c::dom::smil::ElementTime 118 1 1 0 0 21 21 5 21
org::w3c::dom::smil::ElementTimeContainer 22 1 1 0 1 2 2 4 2
org::w3c::dom::smil::ElementTimeControl 5 1 1 0 0 4 4 2 4
org::w3c::dom::smil::ElementTimeManipulation 0 1 1 0 0 8 8 0 8
org::w3c::dom::smil::SMILAnimateColorElement 0 0 0 0 3 0 0 0 0
org::w3c::dom::smil::SMILAnimateElement 1 0 0 0 3 0 0 1 0
org::w3c::dom::smil::SMILAnimateMotionElement 0 1 1 0 4 4 4 0 4
org::w3c::dom::smil::SMILAnimation 3 1 1 0 2 18 18 2 18
org::w3c::dom::smil::SMILDocument 6 1 1 0 3 3 3 1 3
org::w3c::dom::smil::SMILElement 37 1 1 0 1 2 2 10 2
org::w3c::dom::smil::SMILLayoutElement 2 1 1 0 2 4 4 1 4
org::w3c::dom::smil::SMILMediaElement 9 1 1 0 2 30 30 3 30
org::w3c::dom::smil::SMILParElement 1 0 0 0 3 0 0 1 0
org::w3c::dom::smil::SMILRefElement 1 0 0 0 3 0 0 1 0
org::w3c::dom::smil::SMILRegionElement 3 1 1 0 2 8 8 1 8
org::w3c::dom::smil::SMILRegionInterface 4 1 1 0 0 2 2 1 2
org::w3c::dom::smil::SMILRegionMediaElement 2 0 0 0 3 0 0 1 0
org::w3c::dom::smil::SMILRootLayoutElement 1 0 0 0 2 0 0 1 0
org::w3c::dom::smil::SMILSetElement 0 1 1 0 2 2 2 0 2
org::w3c::dom::smil::SMILSwitchElement 0 1 1 0 2 1 1 0 1
org::w3c::dom::smil::SMILTopLayoutElement 0 0 0 0 2 0 0 0 0
org::w3c::dom::smil::Time 8 1 1 0 0 13 13 1 13
org::w3c::dom::smil::TimeEvent 0 1 1 0 1 3 3 0 3
org::w3c::dom::smil::TimeList 8 1 1 0 0 2 2 1 2
org::w3c::dom::views::AbstractView 0 1 1 0 0 1 1 0 1
org::w3c::dom::views::DocumentView 0 1 1 0 0 1 1 0 1
src::com::android::mms::InterceptSendSms 1 1.5 8 1 1 2 32 0 17
src::com::android::mms::InterceptSendSms::sendMms 0 1 16 0 1 1 16 0 1
src::com::android::mms::InterceptSendSms::InterceptSmsReceiver 0 1 16 2 1 1 16 0 8
com::android::mms::MmsLaunchPerformance 0 1 6 0 1 2 12 0 2
com::android::mms::MmsStability 0 1.8 8.4 0 1 3 42 0 12
com::android::mms::MmsStability::sendMms 0 1 12 0 1 1 12 0 1
com::android::mms::RecyclerTest 0 5.75 30.5 2 1 2 122 0 19
com::android::mms::ui::ComposeMessageActivityTests 0 2.75 11 3 1 2 44 0 20
com::android::mms::ui::ComposeMessageActivityTests::BoxChecker 0 1 5.4 0 0 5 27 0 5
com::android::mms::ui::ConversationListTests 0 1 3.5 0 1 2 7 0 3
com::android::mms::ui::LongThreadTest 0 4 24.75 2 1 2 99 0 19
com::android::mms::ui::LongThreadTest::AddSubjectMenuItem 0 1 4 0 1 30 120 0 31
com::android::mms::ui::LongThreadTest::MessageRunnable 1 1 3 0 1 1 3 0 1
com::android::mms::ui::MultiPartSmsTests 0 1.66666666666667 18.3333333333333 3 1 2 55 0 13
com::android::mms::ui::MultiPartSmsTests::MessageRunnable 1 1 3 0 1 1 3 0 2
com::android::mms::util::PhoneNumberComparisonTest 0 1 14 1 1 1 14 0 2
com::android::mms::util::SmileyParserUnitTests 0 2.33333333333333 18 1 1 2 54 0 5
