acc accm amloc cbo dit lcom4 loc noc rfc
com::android::packageinstaller::InstallAppProgress 0 2.5 13.875 1 1 4 111 0 34
com::android::packageinstaller::InstallAppProgress::PackageInstallObserver 0 1 5 0 1 1 5 0 1
com::android::packageinstaller::PackageInstallerActivity 0 3.88888888888889 30.6666666666667 1 1 2 276 0 41
com::android::packageinstaller::PackageInstallerActivity::CaffeinatedScrollView 0 1 3 0 1 2 6 0 2
com::android::packageinstaller::PackageUtil 4 2.28571428571429 12.8571428571429 0 0 6 90 0 8
com::android::packageinstaller::PackageUtil::AppSnippet 0 1 4 0 0 1 4 0 1
com::android::packageinstaller::RemoveReceiver 0 4 14 0 1 1 14 0 1
com::android::packageinstaller::UninstallAppProgress 0 1.75 14.25 1 1 1 57 0 21
com::android::packageinstaller::UninstallAppProgress::PackageDeleteObserver 0 1 6 0 1 1 6 0 1
com::android::packageinstaller::UninstallerActivity 0 3.6 25.8 1 1 2 129 0 19
