acc accm amloc cbo dit lcom4 loc noc rfc
com::android::music::AlbumBrowserActivity 0 3.36842105263158 17.2631578947368 2 1 7 328 0 82
com::android::music::AlbumBrowserActivity::AlbumListAdapter 0 1 10.3 0 1 10 103 0 10
com::android::music::AlbumBrowserActivity::AlbumListAdapter::ViewHolder 0 0 0 0 0 0 0 0 0
com::android::music::AlbumBrowserActivity::AlbumListAdapter::QueryHandler 0 1 4 0 1 1 4 0 1
com::android::music::ArtistAlbumBrowserActivity 0 4.22222222222222 21.1666666666667 2 1 6 381 0 89
com::android::music::ArtistAlbumBrowserActivity::ArtistAlbumListAdapter 0 1 17.4615384615385 0 1 13 227 0 13
com::android::music::ArtistAlbumBrowserActivity::ArtistAlbumListAdapter::ViewHolder 0 0 0 0 0 0 0 0 0
com::android::music::ArtistAlbumBrowserActivity::ArtistAlbumListAdapter::QueryHandler 0 1 4 0 1 1 4 0 1
com::android::music::AudioPreview 1 3.25 16.0625 1 1 2 257 0 76
com::android::music::AudioPreview::ProgressRefresher 0 1 8 0 1 1 8 0 1
com::android::music::AudioPreview::PreviewPlayer 1 1 5 1 1 3 15 0 4
com::android::music::CheckableRelativeLayout 0 1.4 4.4 0 1 2 22 0 11
com::android::music::CreatePlaylist 0 2.8 19.2 0 1 2 96 0 12
com::android::music::DeleteItems 0 1 25 0 1 1 25 0 5
com::android::music::MediaAppWidgetProvider 0 3.2 13.6 1 1 1 68 0 20
com::android::music::MediaButtonIntentReceiver 0 18 90 1 1 1 90 0 15
com::android::music::MediaPickerActivity 0 3.66666666666667 27.8333333333333 1 1 2 167 0 21
com::android::music::MediaPickerActivity::PickListAdapter 0 1 26 0 1 2 52 0 2
com::android::music::MediaPlaybackActivity 1 5.70967741935484 28.6451612903226 5 1 4 888 0 202
com::android::music::MediaPlaybackActivity::AlbumSongIdWrapper 2 0 0 0 0 0 0 0 0
com::android::music::MediaPlaybackActivity::AlbumArtHandler 0 2.5 13.5 2 1 2 27 0 7
com::android::music::MediaPlaybackActivity::Worker 2 1 4.66666666666667 0 1 3 14 0 3
com::android::music::MediaPlaybackService 23 4.12280701754386 21.8245614035088 2 1 2 1244 0 441
com::android::music::MediaPlaybackService::Shuffler 3 2 8 0 0 1 8 0 3
com::android::music::MediaPlaybackService::MultiPlayer 15 1.21428571428571 5.07142857142857 1 0 14 71 0 50
com::android::music::MediaPlaybackService::ServiceStub 0 1 3.03225806451613 0 1 31 94 0 31
com::android::music::MusicAlphabetIndexer 0 1 6 0 1 2 12 0 2
com::android::music::MusicBrowserActivity 0 2 8 0 1 2 24 0 6
com::android::music::MusicPicker 0 3.7 15.3 0 1 10 153 0 10
com::android::music::MusicPicker::TrackListAdapter 0 1 16 0 1 9 144 0 9
com::android::music::MusicPicker::TrackListAdapter::ViewHolder 0 0 0 0 0 0 0 0 0
com::android::music::MusicPicker::QueryHandler 0 2.5 12 0 1 2 24 0 2
com::android::music::MusicUtils 8 4 17.5106382978723 2 0 9 823 0 126
com::android::music::MusicUtils::Defs 46 0 0 0 0 0 0 10 0
com::android::music::MusicUtils::ServiceToken 0 0 0 0 0 0 0 0 0
com::android::music::MusicUtils::ServiceBinder 0 2 6.5 1 1 2 13 0 5
com::android::music::MusicUtils::FastBitmapDrawable 0 1 2.6 0 1 5 13 0 5
com::android::music::MusicUtils::LogEntry 0 0 0 0 0 0 0 0 0
com::android::music::PlaylistBrowserActivity 0 4 21.7894736842105 1 1 5 414 0 83
com::android::music::PlaylistBrowserActivity::PlaylistListAdapter 0 1 9.83333333333333 0 1 6 59 0 6
com::android::music::PlaylistBrowserActivity::PlaylistListAdapter::QueryHandler 0 1 7 0 1 1 7 0 1
com::android::music::QueryBrowserActivity 0 4.33333333333333 18.6666666666667 1 1 3 224 0 40
com::android::music::QueryBrowserActivity::QueryListAdapter 0 1 21.4 0 1 5 107 0 5
com::android::music::QueryBrowserActivity::QueryListAdapter::QueryHandler 0 1 3 0 1 1 3 0 1
com::android::music::RenamePlaylist 0 2.33333333333333 16.5 0 1 2 99 0 20
com::android::music::RepeatingImageButton 1 1.88888888888889 6.88888888888889 1 1 5 62 0 24
com::android::music::RepeatingImageButton::RepeatListener 1 1 1 0 0 1 1 0 1
com::android::music::ScanningProgress 0 1.5 10.5 0 1 1 21 0 6
com::android::music::SharedPreferencesCompat 0 2.5 11 0 0 2 22 0 3
com::android::music::SortCursor 0 3.22222222222222 12.1666666666667 0 1 1 219 0 51
com::android::music::TouchInterceptor 0 4.86666666666667 23.3333333333333 3 1 1 350 0 108
com::android::music::TouchInterceptor::DragListener 1 1 1 0 0 1 1 0 1
com::android::music::TouchInterceptor::DropListener 1 1 1 0 0 1 1 0 1
com::android::music::TouchInterceptor::RemoveListener 2 1 1 0 0 1 1 0 1
com::android::music::TrackBrowserActivity 0 5.42307692307692 31.5 4 1 4 819 0 172
com::android::music::TrackBrowserActivity::NowPlayingCursor 1 2.27777777777778 10.7777777777778 0 1 1 194 0 55
com::android::music::TrackBrowserActivity::TrackListAdapter 0 1 14.4 0 1 10 144 0 10
com::android::music::TrackBrowserActivity::TrackListAdapter::ViewHolder 0 0 0 0 0 0 0 0 0
com::android::music::TrackBrowserActivity::TrackListAdapter::TrackQueryHandler 0 1 14.5 0 1 2 29 0 2
com::android::music::TrackBrowserActivity::TrackListAdapter::TrackQueryHandler::QueryArgs 0 0 0 0 0 0 0 0 0
com::android::music::VerticalTextSpinner 2 2.71428571428571 16.952380952381 1 1 3 356 0 142
com::android::music::VerticalTextSpinner::OnChangedListener 1 1 1 0 0 1 1 0 1
com::android::music::VideoBrowserActivity 0 1.66666666666667 11.8333333333333 0 1 2 71 0 14
com::android::music::WeekSelector 0 1 11 1 1 3 33 0 9
com::android::music::tests::functional::TestPlaylist 0 1.2 9.6 2 1 4 96 0 33
com::android::music::tests::functional::TestSongs 0 1.88888888888889 14.6666666666667 2 1 5 132 0 31
com::android::music::tests::MusicPlayerFunctionalTestRunner 0 1 5 0 1 2 10 0 2
com::android::music::tests::MusicPlayerLaunchPerformance 0 1 4.66666666666667 0 1 3 14 0 3
com::android::music::tests::MusicPlayerNames 12 0 0 0 0 0 0 0 0
com::android::music::tests::MusicPlayerStability 0 1.6 8 0 1 4 40 0 8
com::android::music::tests::MusicPlayerStressTestRunner 0 1 4.5 0 1 2 9 0 2
com::android::music::tests::stress::AlbumsPlaybackStress 0 1.5 10 1 1 4 40 0 7
com::android::music::tests::stress::MusicPlaybackStress 0 1.75 10 2 1 4 40 0 9
