acc accm amloc cbo dit lcom4 loc noc rfc
com::android::voicedialer::BluetoothVoiceDialerActivity 10 3.4375 18.9375 2 1 1 303 0 125
com::android::voicedialer::BluetoothVoiceDialerActivity::ErrorRunnable 0 1 7.5 0 1 2 15 0 2
com::android::voicedialer::BluetoothVoiceDialerActivity::FallbackRunnable 0 1 8 0 1 1 8 0 1
com::android::voicedialer::BluetoothVoiceDialerActivity::GreetingRunnable 0 1 14 0 1 1 14 0 1
com::android::voicedialer::BluetoothVoiceDialerActivity::TtsInitListener 0 1 43 0 1 1 43 0 1
com::android::voicedialer::BluetoothVoiceDialerActivity::OnUtteranceCompletedListener 0 1 11 0 1 1 11 0 1
com::android::voicedialer::BluetoothVoiceDialerActivity::VoiceDialerBroadcastReceiver 0 7 33 1 1 1 33 0 8
com::android::voicedialer::BluetoothVoiceDialerActivity::CommandRecognizerClient 0 3.8 36.4 2 1 5 182 0 39
com::android::voicedialer::BluetoothVoiceDialerActivity::ChoiceRecognizerClient 0 4.25 19.25 3 1 4 77 0 27
com::android::voicedialer::CommandRecognizerEngine 3 8.5 41.0625 3 1 1 657 0 83
com::android::voicedialer::PhoneTypeChoiceRecognizerEngine 0 6.33333333333333 23.3333333333333 2 1 3 70 0 17
com::android::voicedialer::RecognizerClient 3 1 1 0 0 4 4 3 4
com::android::voicedialer::RecognizerEngine 25 8 27.2 1 0 2 136 2 19
com::android::voicedialer::RecognizerLogger 4 2.27272727272727 13.4545454545455 1 0 1 148 0 39
com::android::voicedialer::VoiceContact 1 5.66666666666667 36 0 0 1 216 0 34
com::android::voicedialer::VoiceDialerActivity 4 3.08333333333333 20.25 3 1 1 243 0 74
com::android::voicedialer::VoiceDialerActivity::CommandRecognizerClient 0 3.5 30.5 2 1 4 122 0 36
com::android::voicedialer::VoiceDialerReceiver 0 6 33 0 1 1 33 0 2
com::android::voicedialer::VoiceDialerTester 4 3.18181818181818 15.7272727272727 2 0 1 173 0 56
com::android::voicedialer::VoiceDialerTester::WavFile 5 1 3 0 0 1 3 0 2
com::android::voicedialer::VoiceDialerLaunchPerformance 0 1 5.5 0 1 2 11 0 2
